<?xml version="1.0" encoding="utf-8"?>
<!-- Generator: Adobe Illustrator 24.0.3, SVG Export Plug-In . SVG Version: 6.00 Build 0)  -->
<svg version="1.1" id="Layer_1" xmlns="http://www.w3.org/2000/svg" xmlns:xlink="http://www.w3.org/1999/xlink" x="0px" y="0px"
	 viewBox="0 0 595.28 32" style="enable-background:new 0 0 595.28 32;" xml:space="preserve">
<style type="text/css">
	.st0{fill:#0D1B3A;}
	.st1{fill:#2751A4;}
</style>
<g id="Layer_2_1_">
</g>
<g id="Layer_1_1_">
	<g>
		<rect x="0.3" class="st0" width="223.78" height="21.46"/>
		<polygon class="st1" points="594.98,32 221.89,32 204.55,0 594.98,0 		"/>
	</g>
</g>
</svg>
